
60,62,71,287,383,433,583,672,675,740,759,802,819,820	287,383,62,583,60,433,672,820,675,759,71,819,740,802	NOTHING	NOTHING	False Positive: 0.0, Nodes = 0	False Negative: 0.0, Nodes = 0
77,111,192,226,257,314,555,575,592	77,111,192,226,257,314	555,575,592	NOTHING	False Positive: 0.0, Nodes = 0	False Negative: 0.3333333333333333, Nodes = 3
41,58,167,255,320,356,441	320,58,356,41,441,255,167	NOTHING	NOTHING	False Positive: 0.0, Nodes = 0	False Negative: 0.0, Nodes = 0
155,228,234,286,295,307,403,477,523,606,704,705	704,705,228,606,307,155,295,286,403,523,477,234	NOTHING	NOTHING	False Positive: 0.0, Nodes = 0	False Negative: 0.0, Nodes = 0
252,333,337,367,374,379,391,448,476,556,728,753,767,834,846,861,898,905,907,918,931,941,955,961,967,994,995,998	955,753,907,931,767,834,846,967,961,728,994,905,941,998,898,995,918,861,448,367,374,391,333,476,379,556,252,337	NOTHING	NOTHING	False Positive: 0.0, Nodes = 0	False Negative: 0.0, Nodes = 0
106,251,336,373,382,385,404,438,442,665,668,679,793,799,803,824,854,882,894,935,945,971,974,985,986	935,799,824,668,974,793,882,803,894,986,985,971,854,665,945,679,106,373,404,438,336,442,251,385,382	NOTHING	NOTHING	False Positive: 0.0, Nodes = 0	False Negative: 0.0, Nodes = 0
82,264,429,552,615,625,631,677,727,772,810,833,864,867,880,883,897	727,864,772,82,810,897,883,833,880,677,867,615,625,631,264,429,552	NOTHING	NOTHING	False Positive: 0.0, Nodes = 0	False Negative: 0.0, Nodes = 0
169,216,266,279,453,542,680,702,709,720,737,749	702,720,680,749,737,709,279,266,216,169,542,453	NOTHING	NOTHING	False Positive: 0.0, Nodes = 0	False Negative: 0.0, Nodes = 0
47,100,127,272,340,564,582,607,706,747,755,764,768,789,791,842	340,272,47,564,582,127,607,100,768,706,747,755,764,842,789,791	NOTHING	NOTHING	False Positive: 0.0, Nodes = 0	False Negative: 0.0, Nodes = 0
96,159,186,202,262,267,326,357	186,357,262,202,159,326,267,96	NOTHING	NOTHING	False Positive: 0.0, Nodes = 0	False Negative: 0.0, Nodes = 0
119,124,146,171,184,312	119,184,171,124,146,312	NOTHING	NOTHING	False Positive: 0.0, Nodes = 0	False Negative: 0.0, Nodes = 0
44,165,256,283,310,331,401,405,424,639	44,283,401,310,256,165,331,639,424,405	NOTHING	NOTHING	False Positive: 0.0, Nodes = 0	False Negative: 0.0, Nodes = 0
89,221,236,245,311,380,421,543,591,650,673,725,748	748,725,89,650,673,221,591,421,543,380,236,311,245	NOTHING	NOTHING	False Positive: 0.0, Nodes = 0	False Negative: 0.0, Nodes = 0
7,81,278,285,361,428,487,496,544,638,644,684,715	285,487,496,644,428,278,544,361,638,684,81,715,7	NOTHING	NOTHING	False Positive: 0.0, Nodes = 0	False Negative: 0.0, Nodes = 0
6,9,87,125,143	87,9,6,125,143	NOTHING	NOTHING	False Positive: 0.0, Nodes = 0	False Negative: 0.0, Nodes = 0
40,48,219,258,334,451,598,622,662,676,750,788,809	622,598,48,451,219,40,258,334,676,750,788,662,809	NOTHING	NOTHING	False Positive: 0.0, Nodes = 0	False Negative: 0.0, Nodes = 0
29,37,80,94,187,208,338,414,526	80,94,37,208,29,187,338,414,526	NOTHING	NOTHING	False Positive: 0.0, Nodes = 0	False Negative: 0.0, Nodes = 0
12,68,175,209,238,354,363,516,536	209,536,354,363,175,516,12,238,68	NOTHING	NOTHING	False Positive: 0.0, Nodes = 0	False Negative: 0.0, Nodes = 0
46,67,163,273,280,377,467,468,470	470,46,280,163,67	273,377,467,468	NOTHING	False Positive: 0.0, Nodes = 0	False Negative: 0.4444444444444444, Nodes = 4
254,339,365,369,402,459,460,494,538,548,647,734,792,813,830,856,871	339,365,459,494,460,369,548,402,254,538	647,734,792,813,830,856,871	NOTHING	False Positive: 0.0, Nodes = 0	False Negative: 0.4117647058823529, Nodes = 7
32,38,42,105,309,431,464	32,38,105,431,309,42,464	NOTHING	NOTHING	False Positive: 0.0, Nodes = 0	False Negative: 0.0, Nodes = 0
116,204,268,303,461,521,537,541,621,629,688,745,783,818,828,878	541,621,521,303,629,204,537,268,116,461,828,818,688,878,745,783	NOTHING	NOTHING	False Positive: 0.0, Nodes = 0	False Negative: 0.0, Nodes = 0
130,136,140,161,214,230,443	136,140,161,214,443,230,130	NOTHING	NOTHING	False Positive: 0.0, Nodes = 0	False Negative: 0.0, Nodes = 0
28,191,224,277,458,475,484,562,610,626,681,776,779	458,484,562,610,28,191,626,277,475,224,776,779,681	NOTHING	NOTHING	False Positive: 0.0, Nodes = 0	False Negative: 0.0, Nodes = 0
26,108,152,227,457,551,595,611,635,653,744,795,811	795,811,653,744,635,26,108,457,152,227,595,551,611	NOTHING	NOTHING	False Positive: 0.0, Nodes = 0	False Negative: 0.0, Nodes = 0
1,11,54,158,197	1,11,158,197,54	NOTHING	NOTHING	False Positive: 0.0, Nodes = 0	False Negative: 0.0, Nodes = 0
13,59,83,102,195,284	284,102,195,59,13,83	NOTHING	NOTHING	False Positive: 0.0, Nodes = 0	False Negative: 0.0, Nodes = 0
70,210,239,244,275,368,439,444,455,532,637,786	786,70,439,244,444,239,532,275,455,368,210,637	NOTHING	NOTHING	False Positive: 0.0, Nodes = 0	False Negative: 0.0, Nodes = 0
22,135,180,465,471,500,547,553,568	22,180,471,500,465,135,547,568,553	NOTHING	NOTHING	False Positive: 0.0, Nodes = 0	False Negative: 0.0, Nodes = 0
2,10,20,34,66	10,2,20,34,66	NOTHING	NOTHING	False Positive: 0.0, Nodes = 0	False Negative: 0.0, Nodes = 0
33,114,168,178,397,554,667,722,757,780,868,874,896,900,910,912,921,929,943,948,956,960,978,981,982,993,997	114,33,178,168,397,554,921,997,912,667,900,943,993,948,910,896,956,960,722,978,981,982,874,780,868,929,757	NOTHING	NOTHING	False Positive: 0.0, Nodes = 0	False Negative: 0.0, Nodes = 0
45,115,316,335,410,522,565,678,697,703,730,832,849,850,888,893,901,911	115,316,410,45,522,565,335,697,703,730,678	832,849,850,888,893,901,911	NOTHING	False Positive: 0.0, Nodes = 0	False Negative: 0.3888888888888889, Nodes = 7
61,164,315,384,413,456,518,756,765,769,807,808,838,857,859	765,769,456,315,518,413,61,164,384	756,807,808,838,857,859	NOTHING	False Positive: 0.0, Nodes = 0	False Negative: 0.4, Nodes = 6
35,39,213,342,400,560,618,640,660,693	560,35,39,213,640,618,400,342,693,660	NOTHING	NOTHING	False Positive: 0.0, Nodes = 0	False Negative: 0.0, Nodes = 0
95,194,241,270,399,420,574,594,707,743,752,837,845,891,902,913,919,923,924,947,949,951,963,965,972,976,979,999	707,919,913,845,891,743,951,95,752,949,924,947,972,837,965,902,976,999,923,979,963,594,194,420,574,270,241,399	NOTHING	NOTHING	False Positive: 0.0, Nodes = 0	False Negative: 0.0, Nodes = 0
76,122,149,344,388,435,531,584,590,603,685,723,797,843,879,926,950,957,958,966,968,969,970,980,984	584,122,388,149,603,531,435,344,590,980,723,966,968,969,879,970,843,797,950,685,76,957,958,984,926	NOTHING	NOTHING	False Positive: 0.0, Nodes = 0	False Negative: 0.0, Nodes = 0
129,157,235,261,302,463,472	302,472,235,261,157,129,463	NOTHING	NOTHING	False Positive: 0.0, Nodes = 0	False Negative: 0.0, Nodes = 0
14,97,177,182,205,406,437,454,469,617,674,711,721,761,784,785	711,721,784,785,761,674,97,617,182,177,454,437,14,469,205,406	NOTHING	NOTHING	False Positive: 0.0, Nodes = 0	False Negative: 0.0, Nodes = 0
107,259,265,425,503,520,581,589,632,634,687,694,698,713,774,816,887,899,925,940,959,962,973,987,990,991,992,996,1000	634,632,425,265,1000,107,581,589,503,259,520,990,694,987,899,816,687,996,774,925,940,991,713,887,962,992,973,698,959	NOTHING	NOTHING	False Positive: 0.0, Nodes = 0	False Negative: 0.0, Nodes = 0
50,73,98,126,211,343,486,545	98,73,343,211,50,126,545,486	NOTHING	NOTHING	False Positive: 0.0, Nodes = 0	False Negative: 0.0, Nodes = 0
27,64,91,176,237,242,452,482,612,614,642,654,714,726,733,823	64,27,612,482,654,714,823,91	176,237,242,452,614,642,726,733	NOTHING	False Positive: 0.0, Nodes = 0	False Negative: 0.5, Nodes = 8
63,131,185,225,232,269	269,63,232,225,185,131	NOTHING	NOTHING	False Positive: 0.0, Nodes = 0	False Negative: 0.0, Nodes = 0
17,23,90,104,139,183,218,362,419,440,566,576,577,580,593,630,708,886,892,917,934,944	917,934,892,708,90,886,944,440,104,630,362,593,580,139,577,576,566,23,17,419,218,183	NOTHING	NOTHING	False Positive: 0.0, Nodes = 0	False Negative: 0.0, Nodes = 0
8,79,117,282,324,508,530,558,627,663,671,746,771	746,79,663,671,771,8,627,324,558,282,530,508,117	NOTHING	NOTHING	False Positive: 0.0, Nodes = 0	False Negative: 0.0, Nodes = 0
16,51,217,319,353,415,505,509,585,669,739,777	217,505,415,585,16,669	51,319,353,509,739,777	NOTHING	False Positive: 0.0, Nodes = 0	False Negative: 0.5, Nodes = 6
86,200,305,318,387,478,527,573,596,646,682,729,738,760,770,829,862,877,908	527,646,387,200,573,305,596,318,478,738,908,829,729,862,86,877,760,682,770	NOTHING	NOTHING	False Positive: 0.0, Nodes = 0	False Negative: 0.0, Nodes = 0
53,109,120,222,240,366,378,398,426	53,426,378,120,366,240,109,222,398	NOTHING	NOTHING	False Positive: 0.0, Nodes = 0	False Negative: 0.0, Nodes = 0
21,55,121,132,181,248	21,55,248,121,181,132	NOTHING	NOTHING	False Positive: 0.0, Nodes = 0	False Negative: 0.0, Nodes = 0
52,137,289,345,504,550,570,623,657,664	345,550,137,52,289,570	504,623,657,664	NOTHING	False Positive: 0.0, Nodes = 0	False Negative: 0.4, Nodes = 4
18,25,57,142,253,306,392,534	306,25,57,142	18,253,392,534	NOTHING	False Positive: 0.0, Nodes = 0	False Negative: 0.5, Nodes = 4
74,78,112,294,298,450,473,501	501,450,294,298,473,112,74,78	NOTHING	NOTHING	False Positive: 0.0, Nodes = 0	False Negative: 0.0, Nodes = 0
416,418,462,605,636,691,699,732,735,781,821,826,835,858,876,884,906,909,915,938,946,953	416,418,605,462,636,821,826,835,781,858,735,732,876,884,699,691,906,909,915,938,946,953	NOTHING	NOTHING	False Positive: 0.0, Nodes = 0	False Negative: 0.0, Nodes = 0
323,325,412,436,491,506,514,559,588	325,412,491,506,588,514,323,436,559	NOTHING	NOTHING	False Positive: 0.0, Nodes = 0	False Negative: 0.0, Nodes = 0
5,75,134,170,173,313,417,498	417,170,134,313,173,498,5,75	NOTHING	NOTHING	False Positive: 0.0, Nodes = 0	False Negative: 0.0, Nodes = 0
88,128,153,174,348,432,497,567,643,658	153,174,432,348,128,88	497,567,643,658	NOTHING	False Positive: 0.0, Nodes = 0	False Negative: 0.4, Nodes = 4
84,138,151,229,290,296,322	84,296,151,138,322,290,229	NOTHING	NOTHING	False Positive: 0.0, Nodes = 0	False Negative: 0.0, Nodes = 0
31,110,223,360,479,513,569,659,670,689,692,758,763,773,853	659,692,758,763,853,670,773,689,110,31,479,513,360,569,223	NOTHING	NOTHING	False Positive: 0.0, Nodes = 0	False Negative: 0.0, Nodes = 0
203,249,260,276,395,409,466,488,502,533,599,716,717,766,790	716,766,790,717,466,599,395,276,409,533,203,260,502,488,249	NOTHING	NOTHING	False Positive: 0.0, Nodes = 0	False Negative: 0.0, Nodes = 0
56,206,233,299,300,304,375,386,572,628,695,796,800,815	796,815,800,695,300,206,572,304,628,233,299,56,375,386	NOTHING	NOTHING	False Positive: 0.0, Nodes = 0	False Negative: 0.0, Nodes = 0
118,359,422,493,529,561,586,619,651,710,775,804,805,831,840,847,885	529,586,118,422,561,359,493,619,831,775,847,710,840,804,651,885,805	NOTHING	NOTHING	False Positive: 0.0, Nodes = 0	False Negative: 0.0, Nodes = 0
196,393,427,446,483,495,571,620,641,648,649,701,751,787,860	427,620,196,641,495,393,446,571,483,648,649,701,751,787,860	NOTHING	NOTHING	False Positive: 0.0, Nodes = 0	False Negative: 0.0, Nodes = 0
193,317,328,347,350,364,389,485,525	485,350,389,525,317,364,193,328,347	NOTHING	NOTHING	False Positive: 0.0, Nodes = 0	False Negative: 0.0, Nodes = 0
49,65,85,148,166,201	148,166,201,49,85,65	NOTHING	NOTHING	False Positive: 0.0, Nodes = 0	False Negative: 0.0, Nodes = 0
3,4,15,19,263,371,447,480,609,655,754,801,812,814,851,855	609,3,371,480,263,4,19,15,447,754,855,655,814,801,812,851	NOTHING	NOTHING	False Positive: 0.0, Nodes = 0	False Negative: 0.0, Nodes = 0
92,189,330,396,408,445,492,510,517,579,604,645,718,741,852,865,875,881,920,928,936,952,964	741,865,875,881,718,92,920,928,936,952,964,852,396,579,189,492,445,645,604,510,408,517,330	NOTHING	NOTHING	False Positive: 0.0, Nodes = 0	False Negative: 0.0, Nodes = 0
231,292,370,407,411,535,540,546,563	231,370,411,563,540,535,407,546,292	NOTHING	NOTHING	False Positive: 0.0, Nodes = 0	False Negative: 0.0, Nodes = 0
24,30,188,215,352,394,524,549	352,215,30,188,24	394,524,549	NOTHING	False Positive: 0.0, Nodes = 0	False Negative: 0.375, Nodes = 3
133,145,243,332,349,358,372,608,700,712,731	145,372,608,243,358,332,349,133,731,712,700	NOTHING	NOTHING	False Positive: 0.0, Nodes = 0	False Negative: 0.0, Nodes = 0
150,160,212,220,329,430,539,557,683,794,806,839,844,870,904,916,922,930,932,933,942	839,844,932,916,942,806,933,683,870,922,904,794,930,539,557,160,329,430,220,150,212	NOTHING	NOTHING	False Positive: 0.0, Nodes = 0	False Negative: 0.0, Nodes = 0
93,199,293,297,327,341,481,512,600,666	512,341,199,481,600,293,327,297,93,666	NOTHING	NOTHING	False Positive: 0.0, Nodes = 0	False Negative: 0.0, Nodes = 0
351,507,528,601,602,652,696,719,724,778,782,798,822,836,869,872	528,507,602,601,351,798,869,782,652,836,778,719,822,872,724,696	NOTHING	NOTHING	False Positive: 0.0, Nodes = 0	False Negative: 0.0, Nodes = 0
99,198,250,321,376,381,499,587,633,656,661,686,825,827,873,889,890,903,914,927,937,939,954,975,977,983,988,989	250,499,198,381,376,587,321,633,890,825,989,927,873,983,977,975,656,99,889,661,954,903,686,827,939,937,914,988	NOTHING	NOTHING	False Positive: 0.0, Nodes = 0	False Negative: 0.0, Nodes = 0
43,141,179,271,274,346,423,515,578,616,624	274,43,616,346,624,515,423,179,578,141,271	NOTHING	NOTHING	False Positive: 0.0, Nodes = 0	False Negative: 0.0, Nodes = 0
69,101,123,144,172,301,355,490	69,355,490,123,301,144,101,172	NOTHING	NOTHING	False Positive: 0.0, Nodes = 0	False Negative: 0.0, Nodes = 0
103,246,291,449,489,511,519,690,736,742,762,817,841,848,863,866,895	519,291,246,511,489,103,449,762,690,866,863,817,841,742,848,895,736	NOTHING	NOTHING	False Positive: 0.0, Nodes = 0	False Negative: 0.0, Nodes = 0
72,113,147,154,156,207,308,434	156,434,113,207,147	72,154,308	NOTHING	False Positive: 0.0, Nodes = 0	False Negative: 0.375, Nodes = 3
36,162,190,247,281,288,390,474,597,613	190,247,613,162,288,390,36,597,281,474	NOTHING	NOTHING	False Positive: 0.0, Nodes = 0	False Negative: 0.0, Nodes = 0
NOTHING	308,154,72	NOTHING	308,154,72	False Positive: 1.0, Nodes = 3	False Negative: 0.0, Nodes = 0
NOTHING	592,575,555	NOTHING	592,575,555	False Positive: 1.0, Nodes = 3	False Negative: 0.0, Nodes = 0
NOTHING	18,392,253,534	NOTHING	18,392,253,534	False Positive: 1.0, Nodes = 4	False Negative: 0.0, Nodes = 0
NOTHING	497,643,567,658	NOTHING	497,643,567,658	False Positive: 1.0, Nodes = 4	False Negative: 0.0, Nodes = 0
NOTHING	549,394,524	NOTHING	549,394,524	False Positive: 1.0, Nodes = 3	False Negative: 0.0, Nodes = 0
NOTHING	647,734,871,813,792,856,830	NOTHING	647,734,871,813,792,856,830	False Positive: 1.0, Nodes = 7	False Negative: 0.0, Nodes = 0
NOTHING	657,664,504,623	NOTHING	657,664,504,623	False Positive: 1.0, Nodes = 4	False Negative: 0.0, Nodes = 0
NOTHING	777,739,353,509,51,319	NOTHING	777,739,353,509,51,319	False Positive: 1.0, Nodes = 6	False Negative: 0.0, Nodes = 0
NOTHING	273,468,377,467	NOTHING	273,468,377,467	False Positive: 1.0, Nodes = 4	False Negative: 0.0, Nodes = 0
NOTHING	859,808,807,838,857,756	NOTHING	859,808,807,838,857,756	False Positive: 1.0, Nodes = 6	False Negative: 0.0, Nodes = 0
NOTHING	726,733,614,242,176,452,237,642	NOTHING	726,733,614,242,176,452,237,642	False Positive: 1.0, Nodes = 8	False Negative: 0.0, Nodes = 0
NOTHING	901,850,849,911,888,893,832	NOTHING	901,850,849,911,888,893,832	False Positive: 1.0, Nodes = 7	False Negative: 0.0, Nodes = 0

*********************************************

Final Summary
*********************************************

Perfect Community Matches = 65
Total Wrongly Classified Nodes FP= 59
Total Wrongly Classified Nodes FN= 59
*********************************************


Communities having both FP and FN: 0
*********************************************


Communities having only FP: 12
NOTHING	308,154,72	NOTHING	308,154,72	False Positive: 1.0, Nodes = 3	False Negative: 0.0, Nodes = 0
NOTHING	592,575,555	NOTHING	592,575,555	False Positive: 1.0, Nodes = 3	False Negative: 0.0, Nodes = 0
NOTHING	18,392,253,534	NOTHING	18,392,253,534	False Positive: 1.0, Nodes = 4	False Negative: 0.0, Nodes = 0
NOTHING	497,643,567,658	NOTHING	497,643,567,658	False Positive: 1.0, Nodes = 4	False Negative: 0.0, Nodes = 0
NOTHING	549,394,524	NOTHING	549,394,524	False Positive: 1.0, Nodes = 3	False Negative: 0.0, Nodes = 0
NOTHING	647,734,871,813,792,856,830	NOTHING	647,734,871,813,792,856,830	False Positive: 1.0, Nodes = 7	False Negative: 0.0, Nodes = 0
NOTHING	657,664,504,623	NOTHING	657,664,504,623	False Positive: 1.0, Nodes = 4	False Negative: 0.0, Nodes = 0
NOTHING	777,739,353,509,51,319	NOTHING	777,739,353,509,51,319	False Positive: 1.0, Nodes = 6	False Negative: 0.0, Nodes = 0
NOTHING	273,468,377,467	NOTHING	273,468,377,467	False Positive: 1.0, Nodes = 4	False Negative: 0.0, Nodes = 0
NOTHING	859,808,807,838,857,756	NOTHING	859,808,807,838,857,756	False Positive: 1.0, Nodes = 6	False Negative: 0.0, Nodes = 0
NOTHING	726,733,614,242,176,452,237,642	NOTHING	726,733,614,242,176,452,237,642	False Positive: 1.0, Nodes = 8	False Negative: 0.0, Nodes = 0
NOTHING	901,850,849,911,888,893,832	NOTHING	901,850,849,911,888,893,832	False Positive: 1.0, Nodes = 7	False Negative: 0.0, Nodes = 0
*********************************************


Communities having only FN: 12
77,111,192,226,257,314,555,575,592	77,111,192,226,257,314	555,575,592	NOTHING	False Positive: 0.0, Nodes = 0	False Negative: 0.3333333333333333, Nodes = 3
46,67,163,273,280,377,467,468,470	470,46,280,163,67	273,377,467,468	NOTHING	False Positive: 0.0, Nodes = 0	False Negative: 0.4444444444444444, Nodes = 4
254,339,365,369,402,459,460,494,538,548,647,734,792,813,830,856,871	339,365,459,494,460,369,548,402,254,538	647,734,792,813,830,856,871	NOTHING	False Positive: 0.0, Nodes = 0	False Negative: 0.4117647058823529, Nodes = 7
45,115,316,335,410,522,565,678,697,703,730,832,849,850,888,893,901,911	115,316,410,45,522,565,335,697,703,730,678	832,849,850,888,893,901,911	NOTHING	False Positive: 0.0, Nodes = 0	False Negative: 0.3888888888888889, Nodes = 7
61,164,315,384,413,456,518,756,765,769,807,808,838,857,859	765,769,456,315,518,413,61,164,384	756,807,808,838,857,859	NOTHING	False Positive: 0.0, Nodes = 0	False Negative: 0.4, Nodes = 6
27,64,91,176,237,242,452,482,612,614,642,654,714,726,733,823	64,27,612,482,654,714,823,91	176,237,242,452,614,642,726,733	NOTHING	False Positive: 0.0, Nodes = 0	False Negative: 0.5, Nodes = 8
16,51,217,319,353,415,505,509,585,669,739,777	217,505,415,585,16,669	51,319,353,509,739,777	NOTHING	False Positive: 0.0, Nodes = 0	False Negative: 0.5, Nodes = 6
52,137,289,345,504,550,570,623,657,664	345,550,137,52,289,570	504,623,657,664	NOTHING	False Positive: 0.0, Nodes = 0	False Negative: 0.4, Nodes = 4
18,25,57,142,253,306,392,534	306,25,57,142	18,253,392,534	NOTHING	False Positive: 0.0, Nodes = 0	False Negative: 0.5, Nodes = 4
88,128,153,174,348,432,497,567,643,658	153,174,432,348,128,88	497,567,643,658	NOTHING	False Positive: 0.0, Nodes = 0	False Negative: 0.4, Nodes = 4
24,30,188,215,352,394,524,549	352,215,30,188,24	394,524,549	NOTHING	False Positive: 0.0, Nodes = 0	False Negative: 0.375, Nodes = 3
72,113,147,154,156,207,308,434	156,434,113,207,147	72,154,308	NOTHING	False Positive: 0.0, Nodes = 0	False Negative: 0.375, Nodes = 3