56	16,52
54	44,62
42	2,10,14,55,58
48	1,11,21,29,31,43
43	1,3,11,31,48,51
60	4,9,16,37,46
61	33
62	3,38,54
53	15,30,39,41
52	5,12,19,22,24,25,30,46,51,56
24	37,46,52
25	15,16,19,30,46,52
26	18,27,28
27	2,26,28
20	2,8,31,55
21	9,17,19,29,37,39,45,48,51
22	19,30,34,38,46,52
23	18
46	9,16,19,22,24,25,30,38,51,52,60
47	44,50
44	15,30,34,38,39,47,54
45	3,21,35,39
28	2,8,18,26,27
29	2,9,21,31,48
40	37,58
41	1,8,15,16,34,37,38,53
1	11,15,16,41,43,48
3	11,43,45,62
2	18,20,27,28,29,37,42,55
5	52
4	9,15,60
7	10,14,18,55,57,58
6	10,14,57,58
9	4,21,29,38,46,60
8	20,28,31,41,55
51	15,17,21,34,43,46,52
49	58
39	15,17,21,34,44,45,53,59
12	52
59	39
58	6,7,10,14,18,40,42,49,55
11	1,3,30,43,48
10	6,7,14,18,33,42,58
13	34
38	9,15,17,22,34,35,37,41,44,46,62
15	1,4,17,25,34,35,38,39,41,44,51,53
14	6,7,10,18,33,42,55,58
17	15,21,34,38,39,51
16	1,19,25,41,46,56,60
19	16,21,22,25,30,46,52
18	2,7,10,14,23,26,28,32,58
31	8,20,29,43,48
30	11,19,22,25,36,44,46,52,53
37	2,21,24,38,40,41,60
36	30
35	15,34,38,45,50
34	13,15,17,22,35,38,39,41,44,51
33	10,14,61
55	2,7,8,14,20,42,58
32	18
57	6,7
50	35,47
