1	27 
2	31 
3	68 
4	68 
5	53 
6	15 
7	14 
8	46 
9	15 
10	31 
11	27 
12	19 
13	26 
14	36 
15	68 
16	47 
17	41 
18	49 
19	68 
20	31 
21	51 
22	28 
23	41 
24	71 
25	49 
26	24 
27	43 
28	25 
29	16 
30	71 
31	58 
32	20 
33	30 
34	31 
35	32 
36	75 
37	16 
38	20 
39	32 
40	17 
41	3 
42	20 
43	77 
44	12 
45	34 
46	18 
47	9 
48	17 
49	60 
50	42 
51	47 
52	50 
53	45 
54	27 
55	51 
56	56 
57	49 
58	3 
59	26 
60	1 
61	35 
62	1 
63	40 
64	43 
65	60 
66	31 
67	18 
68	19 
69	72 
70	29 
71	1 
72	74 
73	42 
74	48 
75	53 
76	38 
77	2 
78	48 
79	46 
80	16 
81	14 
82	7 
83	26 
84	59 
85	60 
86	44 
87	15 
88	52 
89	13 
90	41 
91	43 
92	69 
93	66 
94	16 
95	33 
96	10 
97	36 
98	42 
99	76 
100	9 
101	72 
102	26 
103	73 
104	41 
105	20 
106	6 
107	37 
108	24 
109	45 
110	58 
111	2 
112	48 
113	74 
114	30 
115	34 
116	23 
117	46 
118	63 
119	11 
120	45 
121	51 
122	38 
123	72 
124	11 
125	15 
126	42 
127	9 
128	52 
129	39 
130	22 
131	40 
132	51 
133	64 
134	53 
135	28 
136	22 
137	50 
138	59 
139	41 
140	22 
141	77 
142	49 
143	15 
144	72 
145	64 
146	11 
147	74 
148	60 
149	38 
150	65 
151	59 
152	24 
153	52 
154	74 
155	4 
156	74 
157	39 
158	27 
159	10 
160	65 
161	22 
162	75 
163	18 
164	35 
165	12 
166	60 
167	3 
168	30 
169	8 
170	53 
171	11 
172	72 
173	53 
174	52 
175	19 
176	43 
177	36 
178	30 
179	77 
180	28 
181	51 
182	36 
183	41 
184	11 
185	40 
186	10 
187	16 
188	71 
189	69 
190	75 
191	25 
192	2 
193	61 
194	33 
195	26 
196	62 
197	27 
198	76 
199	66 
200	44 
201	60 
202	10 
203	57 
204	23 
205	36 
206	56 
207	74 
208	16 
209	19 
210	29 
211	42 
212	65 
213	32 
214	22 
215	71 
216	8 
217	47 
218	41 
219	17 
220	65 
221	13 
222	45 
223	58 
224	25 
225	40 
226	2 
227	24 
228	4 
229	59 
230	22 
231	70 
232	40 
233	56 
234	4 
235	39 
236	13 
237	43 
238	19 
239	29 
240	45 
241	33 
242	43 
243	64 
244	29 
245	13 
246	73 
247	75 
248	51 
249	57 
250	76 
251	6 
252	5 
253	49 
254	21 
255	3 
256	12 
257	2 
258	17 
259	37 
260	57 
261	39 
262	10 
263	68 
264	7 
265	37 
266	8 
267	10 
268	23 
269	40 
270	33 
271	77 
272	9 
273	18 
274	77 
275	29 
276	57 
277	25 
278	14 
279	8 
280	18 
281	75 
282	46 
283	12 
284	26 
285	14 
286	4 
287	1 
288	75 
289	50 
290	59 
291	73 
292	70 
293	66 
294	48 
295	4 
296	59 
297	66 
298	48 
299	56 
300	56 
301	72 
302	39 
303	23 
304	56 
305	44 
306	49 
307	4 
308	74 
309	20 
310	12 
311	13 
312	11 
313	53 
314	2 
315	35 
316	34 
317	61 
318	44 
319	47 
320	3 
321	76 
322	59 
323	54 
324	46 
325	54 
326	10 
327	66 
328	61 
329	65 
330	69 
331	12 
332	64 
333	5 
334	17 
335	34 
336	6 
337	5 
338	16 
339	21 
340	9 
341	66 
342	32 
343	42 
344	38 
345	50 
346	77 
347	61 
348	52 
349	64 
350	61 
351	67 
352	71 
353	47 
354	19 
355	72 
356	3 
357	10 
358	64 
359	63 
360	58 
361	14 
362	41 
363	19 
364	61 
365	21 
366	45 
367	5 
368	29 
369	21 
370	70 
371	68 
372	64 
373	6 
374	5 
375	56 
376	76 
377	18 
378	45 
379	5 
380	13 
381	76 
382	6 
383	1 
384	35 
385	6 
386	56 
387	44 
388	38 
389	61 
390	75 
391	5 
392	49 
393	62 
394	71 
395	57 
396	69 
397	30 
398	45 
399	33 
400	32 
401	12 
402	21 
403	4 
404	6 
405	12 
406	36 
407	70 
408	69 
409	57 
410	34 
411	70 
412	54 
413	35 
414	16 
415	47 
416	55 
417	53 
418	55 
419	41 
420	33 
421	13 
422	63 
423	77 
424	12 
425	37 
426	45 
427	62 
428	14 
429	7 
430	65 
431	20 
432	52 
433	1 
434	74 
435	38 
436	54 
437	36 
438	6 
439	29 
440	41 
441	3 
442	6 
443	22 
444	29 
445	69 
446	62 
447	68 
448	5 
449	73 
450	48 
451	17 
452	43 
453	8 
454	36 
455	29 
456	35 
457	24 
458	25 
459	21 
460	21 
461	23 
462	55 
463	39 
464	20 
465	28 
466	57 
467	18 
468	18 
469	36 
470	18 
471	28 
472	39 
473	48 
474	75 
475	25 
476	5 
477	4 
478	44 
479	58 
480	68 
481	66 
482	43 
483	62 
484	25 
485	61 
486	42 
487	14 
488	57 
489	73 
490	72 
491	54 
492	69 
493	63 
494	21 
495	62 
496	14 
497	52 
498	53 
499	76 
500	28 
501	48 
502	57 
503	37 
504	50 
505	47 
506	54 
507	67 
508	46 
509	47 
510	69 
511	73 
512	66 
513	58 
514	54 
515	77 
516	19 
517	69 
518	35 
519	73 
520	37 
521	23 
522	34 
523	4 
524	71 
525	61 
526	16 
527	44 
528	67 
529	63 
530	46 
531	38 
532	29 
533	57 
534	49 
535	70 
536	19 
537	23 
538	21 
539	65 
540	70 
541	23 
542	8 
543	13 
544	14 
545	42 
546	70 
547	28 
548	21 
549	71 
550	50 
551	24 
552	7 
553	28 
554	30 
555	2 
556	5 
557	65 
558	46 
559	54 
560	32 
561	63 
562	25 
563	70 
564	9 
565	34 
566	41 
567	52 
568	28 
569	58 
570	50 
571	62 
572	56 
573	44 
574	33 
575	2 
576	41 
577	41 
578	77 
579	69 
580	41 
581	37 
582	9 
583	1 
584	38 
585	47 
586	63 
587	76 
588	54 
589	37 
590	38 
591	13 
592	2 
593	41 
594	33 
595	24 
596	44 
597	75 
598	17 
599	57 
600	66 
601	67 
602	67 
603	38 
604	69 
605	55 
606	4 
607	9 
608	64 
609	68 
610	25 
611	24 
612	43 
613	75 
614	43 
615	7 
616	77 
617	36 
618	32 
619	63 
620	62 
621	23 
622	17 
623	50 
624	77 
625	7 
626	25 
627	46 
628	56 
629	23 
630	41 
631	7 
632	37 
633	76 
634	37 
635	24 
636	55 
637	29 
638	14 
639	12 
640	32 
641	62 
642	43 
643	52 
644	14 
645	69 
646	44 
647	21 
648	62 
649	62 
650	13 
651	63 
652	67 
653	24 
654	43 
655	68 
656	76 
657	50 
658	52 
659	58 
660	32 
661	76 
662	17 
663	46 
664	50 
665	6 
666	66 
667	30 
668	6 
669	47 
670	58 
671	46 
672	1 
673	13 
674	36 
675	1 
676	17 
677	7 
678	34 
679	6 
680	8 
681	25 
682	44 
683	65 
684	14 
685	38 
686	76 
687	37 
688	23 
689	58 
690	73 
691	55 
692	58 
693	32 
694	37 
695	56 
696	67 
697	34 
698	37 
699	55 
700	64 
701	62 
702	8 
703	34 
704	4 
705	4 
706	9 
707	33 
708	41 
709	8 
710	63 
711	36 
712	64 
713	37 
714	43 
715	14 
716	57 
717	57 
718	69 
719	67 
720	8 
721	36 
722	30 
723	38 
724	67 
725	13 
726	43 
727	7 
728	5 
729	44 
730	34 
731	64 
732	55 
733	43 
734	21 
735	55 
736	73 
737	8 
738	44 
739	47 
740	1 
741	69 
742	73 
743	33 
744	24 
745	23 
746	46 
747	9 
748	13 
749	8 
750	17 
751	62 
752	33 
753	5 
754	68 
755	9 
756	35 
757	30 
758	58 
759	1 
760	44 
761	36 
762	73 
763	58 
764	9 
765	35 
766	57 
767	5 
768	9 
769	35 
770	44 
771	46 
772	7 
773	58 
774	37 
775	63 
776	25 
777	47 
778	67 
779	25 
780	30 
781	55 
782	67 
783	23 
784	36 
785	36 
786	29 
787	62 
788	17 
789	9 
790	57 
791	9 
792	21 
793	6 
794	65 
795	24 
796	56 
797	38 
798	67 
799	6 
800	56 
801	68 
802	1 
803	6 
804	63 
805	63 
806	65 
807	35 
808	35 
809	17 
810	7 
811	24 
812	68 
813	21 
814	68 
815	56 
816	37 
817	73 
818	23 
819	1 
820	1 
821	55 
822	67 
823	43 
824	6 
825	76 
826	55 
827	76 
828	23 
829	44 
830	21 
831	63 
832	34 
833	7 
834	5 
835	55 
836	67 
837	33 
838	35 
839	65 
840	63 
841	73 
842	9 
843	38 
844	65 
845	33 
846	5 
847	63 
848	73 
849	34 
850	34 
851	68 
852	69 
853	58 
854	6 
855	68 
856	21 
857	35 
858	55 
859	35 
860	62 
861	5 
862	44 
863	73 
864	7 
865	69 
866	73 
867	7 
868	30 
869	67 
870	65 
871	21 
872	67 
873	76 
874	30 
875	69 
876	55 
877	44 
878	23 
879	38 
880	7 
881	69 
882	6 
883	7 
884	55 
885	63 
886	41 
887	37 
888	34 
889	76 
890	76 
891	33 
892	41 
893	34 
894	6 
895	73 
896	30 
897	7 
898	5 
899	37 
900	30 
901	34 
902	33 
903	76 
904	65 
905	5 
906	55 
907	5 
908	44 
909	55 
910	30 
911	34 
912	30 
913	33 
914	76 
915	55 
916	65 
917	41 
918	5 
919	33 
920	69 
921	30 
922	65 
923	33 
924	33 
925	37 
926	38 
927	76 
928	69 
929	30 
930	65 
931	5 
932	65 
933	65 
934	41 
935	6 
936	69 
937	76 
938	55 
939	76 
940	37 
941	5 
942	65 
943	30 
944	41 
945	6 
946	55 
947	33 
948	30 
949	33 
950	38 
951	33 
952	69 
953	55 
954	76 
955	5 
956	30 
957	38 
958	38 
959	37 
960	30 
961	5 
962	37 
963	33 
964	69 
965	33 
966	38 
967	5 
968	38 
969	38 
970	38 
971	6 
972	33 
973	37 
974	6 
975	76 
976	33 
977	76 
978	30 
979	33 
980	38 
981	30 
982	30 
983	76 
984	38 
985	6 
986	6 
987	37 
988	76 
989	76 
990	37 
991	37 
992	37 
993	30 
994	5 
995	5 
996	37 
997	30 
998	5 
999	33 
1000	37 
